Problem Set 1 - Board Games
…
Question 7 (10 points)

Which games have more votes than owners? Create a new column in your top 500 dataframe labeled vote_own_ratio expressing the ratio of votes to owners.

#Create new column for vote_own_ratio
games_cleaned <- games_cleaned %>%
  mutate(vote_own_ratio = num_votes/owned)

#Tibble showing games with more votes than owners
vote_ratio <- games_cleaned %>%
  select(rank,names,num_votes,owned,vote_own_ratio) %>%
  filter(vote_own_ratio >= 1)
vote_ratio

## # A tibble: 30 x 5
##     rank names                               num_votes owned vote_own_ratio
##    <dbl> <chr>                                   <dbl> <dbl>          <dbl>
##  1    49 El Grande                               19489 18802           1.04
##  2    70 Crokinole                                8399  6170           1.36
##  3    98 Goa                                     10001  9913           1.01
##  4   102 Hansa Teutonica                          9126  9002           1.01
##  5   105 Age of Steam                             6980  6517           1.07
##  6   111 Viticulture                              7001  6927           1.01
##  7   131 Age of Empires III: The Age of Dis      9129  7761           1.18
##  8   133 Ra                                      16200 15337           1.06
##  9   135 Imperial                                 7437  6360           1.17
## 10   156 Navegador                                6576  6395           1.03
## #  with 20 more rows
…
