si544-day5-basic-regression
…
get_regression_summaries(score_model)

## # A tibble: 1 x 8
##   r_squared adj_r_squared   mse  rmse sigma statistic p_value    df
##       <dbl>         <dbl> <dbl> <dbl> <dbl>     <dbl>   <dbl> <dbl>
## 1     0.035         0.033 0.285 0.534 0.535      16.7       0     2

Best fit

regression_points <- get_regression_points(score_model)
regression_points

## # A tibble: 463 x 5
##       ID score bty_avg score_hat residual
##    <int> <dbl>   <dbl>     <dbl>    <dbl>
##  1     1   4.7    5         4.21    0.486
##  2     2   4.1    5         4.21   -0.114
##  3     3   3.9    5         4.21   -0.314
##  4     4   4.8    5         4.21    0.586
##  5     5   4.6    3         4.08    0.52 
##  6     6   4.3    3         4.08    0.22 
##  7     7   2.8    3         4.08   -1.28 
##  8     8   4.1    3.33      4.10   -0.002
##  9     9   3.4    3.33      4.10   -0.702
## 10    10   4.5    3.17      4.09    0.409
## #  with 453 more rows
…
## # A tibble: 1 x 8
##   r_squared adj_r_squared   mse  rmse sigma statistic p_value    df
##       <dbl>         <dbl> <dbl> <dbl> <dbl>     <dbl>   <dbl> <dbl>
## 1     0.466         0.458  11.5  3.39  3.44      61.9       0     2

This model explains less than half of the variance of the data points. With an r_squared of 0.46, there is still a lot of variance unexplained. Additioinally, on average the model will deviate from the predicted value by 3.4 seconds (rmse).

Identify the two most extreme residual values. What do those values mean? Can you infer anything about the individuals with those values?

# INSERT YOUR R CODE HERE
get_regression_points(handwriting.model) %>% arrange(desc(residual))

## # A tibble: 73 x 5
##       ID non_dominant dominant non_dominant_hat residual
##    <int>        <dbl>    <dbl>            <dbl>    <dbl>
##  1    56         26.7    10.9              16.9     9.81
##  2    17         18.0     4.79             10.9     7.06
##  3    71         21.3     9.35             15.4     5.92
##  4    13         18.5     7.46             13.5     4.94
##  5    57         17.5     6.45             12.6     4.92
##  6    47         16.5     5.56             11.7     4.84
##  7    55         18.2     7.53             13.6     4.64
##  8    33         18.1     7.75             13.8     4.29
##  9    10         15.7     5.31             11.5     4.28
## 10    72         15.5     5.5              11.6     3.86
## #  with 63 more rows

get_regression_points(handwriting.model) %>% arrange(residual)

## # A tibble: 73 x 5
##       ID non_dominant dominant non_dominant_hat residual
##    <int>        <dbl>    <dbl>            <dbl>    <dbl>
##  1    50        21.2     23.6             29.2     -7.96
##  2    67         4.89     4.79            10.9     -6.06
##  3    54         6.43     5.56            11.7     -5.26
##  4    30         4.51     3.14             9.34    -4.83
##  5    51        10.0      8.64            14.7     -4.66
##  6    53         5.74     4.13            10.3     -4.56
##  7    52         6.62     5.01            11.2     -4.54
##  8    40         9.56     7.73            13.8     -4.24
##  9     1         6.26     4.13            10.3     -4.04
## 10    65        22       20               25.7     -3.74
## #  with 63 more rows
…
