si544-day11-inference-for-regression
…
## # A tibble: 1 x 4
##   mean_price median_price sd_price IQR_price
##        <dbl>        <dbl>    <dbl>     <dbl>
## 1    540088.       450000  367127.    323050

house_prices <- house_prices %>%
  mutate(
    log10_price = log10(price),
    log10_size = log10(sqft_living)
    )

house_prices %>% 
  select(price, log10_price, sqft_living, log10_size)

## # A tibble: 21,613 x 4
##      price log10_price sqft_living log10_size
##      <dbl>       <dbl>       <int>      <dbl>
##  1  221900        5.35        1180       3.07
##  2  538000        5.73        2570       3.41
##  3  180000        5.26         770       2.89
##  4  604000        5.78        1960       3.29
##  5  510000        5.71        1680       3.23
##  6 1225000        6.09        5420       3.73
##  7  257500        5.41        1715       3.23
##  8  291850        5.47        1060       3.03
##  9  229500        5.36        1780       3.25
## 10  323000        5.51        1890       3.28
## # ... with 21,603 more rows
…
Learning Check 12.2

Use infer() to calculate a 95% confidence interval for the slope parameter in the previous regression.

bootstrap_dist_slope <- house_prices %>%
  specify(formula = log10_price ~ log10_size) %>%
  generate(reps = 1000, type = "bootstrap") %>%
  calculate(stat = "slope")
bootstrap_dist_slope

## # A tibble: 1,000 x 2
##    replicate  stat
##        <int> <dbl>
##  1         1 0.828
##  2         2 0.831
##  3         3 0.827
##  4         4 0.842
##  5         5 0.830
##  6         6 0.837
##  7         7 0.834
##  8         8 0.833
##  9         9 0.834
## 10        10 0.838
## # ... with 990 more rows
…
Learning Check 12.3

Hypothesis tests around the slope. Use infer() to generate a hypothesis around the relationship between log10_price and log10_size. Visualize the resulting distribution and shade the p value associated with your observed statistic. What is the value of p?

null_distn_slope <- house_prices %>% 
  specify(log10_price ~ log10_size) %>%
  hypothesize(null = "independence") %>% 
  generate(reps = 1000, type = "permute") %>% 
  calculate(stat = "slope")
null_distn_slope

## # A tibble: 1,000 x 2
##    replicate      stat
##        <int>     <dbl>
##  1         1  0.00336 
##  2         2  0.00572 
##  3         3  0.00675 
##  4         4  0.00745 
##  5         5 -0.000597
##  6         6 -0.0218  
##  7         7 -0.00355 
##  8         8 -0.00345 
##  9         9  0.000271
## 10        10  0.00708 
## # ... with 990 more rows
…
reg_points <- get_regression_points(multiple_regression_model)
reg_points

## # A tibble: 21,613 x 6
##       ID log10_price log10_size condition log10_price_hat residual
##    <int>       <dbl>      <dbl> <fct>               <dbl>    <dbl>
##  1     1        5.35       3.07 3                    5.49   -0.143
##  2     2        5.73       3.41 3                    5.77   -0.036
##  3     3        5.26       2.89 3                    5.34   -0.081
##  4     4        5.78       3.29 5                    5.74    0.043
##  5     5        5.71       3.22 3                    5.62    0.093
##  6     6        6.09       3.73 3                    6.03    0.055
##  7     7        5.41       3.23 3                    5.62   -0.212
##  8     8        5.46       3.02 3                    5.45    0.015
##  9     9        5.36       3.25 3                    5.64   -0.275
## 10    10        5.51       3.28 3                    5.66   -0.148
## # ... with 21,603 more rows
…
