si544-day9-sampling-bootstrapping-ci
…
## v ggplot2 3.2.1     v purrr   0.3.2
## v tibble  2.1.3     v dplyr   0.8.3
## v tidyr   1.0.0     v stringr 1.4.0
## v readr   1.3.1     v forcats 0.4.0

## -- Conflicts ---------------------------------------------------------------------------------- tidyverse_conflicts() --
## x dplyr::filter() masks stats::filter()
## x dplyr::lag()    masks stats::lag()

library(ggplot2)

tactile_prop_red

## # A tibble: 33 x 4
##    group            replicate red_balls prop_red
##    <chr>                <int>     <int>    <dbl>
##  1 Ilyas, Yohan             1        21     0.42
##  2 Morgan, Terrance         2        17     0.34
##  3 Martin, Thomas           3        21     0.42
##  4 Clark, Frank             4        21     0.42
##  5 Riddhi, Karina           5        18     0.36
##  6 Andrew, Tyler            6        19     0.38
##  7 Julia                    7        19     0.38
##  8 Rachel, Lauren           8        11     0.22
##  9 Daniel, Caroline         9        15     0.3 
## 10 Josh, Maeve             10        17     0.34
## # ... with 23 more rows
…
bowl

## # A tibble: 2,400 x 2
##    ball_ID color
##      <int> <chr>
##  1       1 white
##  2       2 white
##  3       3 white
##  4       4 red  
##  5       5 white
##  6       6 white
##  7       7 red  
##  8       8 white
##  9       9 red  
## 10      10 white
## # ... with 2,390 more rows

set.seed(76)

virtual_shovel <- bowl %>% 
  rep_sample_n(size = 50)

virtual_shovel

## # A tibble: 50 x 3
## # Groups:   replicate [1]
##    replicate ball_ID color
##        <int>   <int> <chr>
##  1         1    1970 white
##  2         1     842 red  
##  3         1    2287 white
##  4         1     599 white
##  5         1     108 white
##  6         1     846 red  
##  7         1     390 red  
##  8         1     344 white
##  9         1     910 white
## 10         1    1485 white
## # ... with 40 more rows
…
Infer

glimpse(pennies_sample)

## Observations: 50
## Variables: 2
## $ ID   <int> 1, 2, 3, 4, 5, 6, 7, 8, 9, 10, 11, 12, 13, 14, 15, 16, 17...
## $ year <dbl> 2002, 1986, 2017, 1988, 2008, 1983, 2008, 1996, 2004, 200...

pennies_sample %>% 
  rep_sample_n(size = 50, replace = TRUE, reps = 1000)

## # A tibble: 50,000 x 3
## # Groups:   replicate [1,000]
##    replicate    ID  year
##        <int> <int> <dbl>
##  1         1    26  1979
##  2         1     8  1996
##  3         1    29  1988
##  4         1     7  2008
##  5         1    34  1985
##  6         1    21  1981
##  7         1    33  1979
##  8         1    45  1997
##  9         1    18  1996
## 10         1    19  1983
## # ... with 49,990 more rows

pennies_sample %>% 
  rep_sample_n(size = 50, replace = TRUE, reps = 1000) %>% 
  group_by(replicate) %>% 
  summarize(mean_year = mean(year))

## # A tibble: 1,000 x 2
##    replicate mean_year
##        <int>     <dbl>
##  1         1     1998.
##  2         2     1994.
##  3         3     1995.
##  4         4     1996.
##  5         5     1996.
##  6         6     1996.
##  7         7     1995.
##  8         8     1994.
##  9         9     1994.
## 10        10     1998.
## # ... with 990 more rows
…
## # A tibble: 1 x 1
##    stat
##   <dbl>
## 1 1995.

Equivalently:

pennies_sample %>% 
  specify(formula = year ~ NULL)

## Response: year (numeric)
## # A tibble: 50 x 1
##     year
##    <dbl>
##  1  2002
##  2  1986
##  3  2017
##  4  1988
##  5  2008
##  6  1983
##  7  2008
##  8  1996
##  9  2004
## 10  2000
## # ... with 40 more rows

bootstrap_distribution <- pennies_sample %>% 
  specify(response = year) %>% 
  generate(reps = 1000, type="bootstrap") %>% 
  calculate(stat = "median")
bootstrap_distribution

## # A tibble: 1,000 x 2
##    replicate  stat
##        <int> <dbl>
##  1         1 1996 
##  2         2 1997 
##  3         3 1993 
##  4         4 1988 
##  5         5 1996 
##  6         6 2000.
##  7         7 1999 
##  8         8 1994.
##  9         9 1997 
## 10        10 1996.
## # ... with 990 more rows
…
