Problem Set 3 - Boston
…
get_regression_summaries(high_crime_regression)

## # A tibble: 1 x 8
##   r_squared adj_r_squared   mse  rmse sigma statistic p_value    df
##       <dbl>         <dbl> <dbl> <dbl> <dbl>     <dbl>   <dbl> <dbl>
## 1     0.416         0.407  43.1  6.57  6.62      50.6       0     8

reg_pts <- get_regression_points(high_crime_regression)
reg_pts

## # A tibble: 506 x 11
##       ID  crim    zn  chas   nox    rm   age   dis   rad crim_hat residual
##    <int> <dbl> <dbl> <int> <dbl> <dbl> <dbl> <dbl> <int>    <dbl>    <dbl>
##  1     1 0.006  18       0 0.538  6.58  65.2  4.09     1   -1.34     1.34 
##  2     2 0.027   0       0 0.469  6.42  78.9  4.97     2   -1.31     1.34 
##  3     3 0.027   0       0 0.469  7.18  61.1  4.97     2   -2.64     2.67 
##  4     4 0.032   0       0 0.458  7.00  45.8  6.06     3   -2.83     2.86 
##  5     5 0.069   0       0 0.458  7.15  54.2  6.06     3   -2.84     2.90 
##  6     6 0.03    0       0 0.458  6.43  58.7  6.06     3   -1.84     1.87 
##  7     7 0.088  12.5     0 0.524  6.01  66.6  5.56     5    0.522   -0.434
##  8     8 0.145  12.5     0 0.524  6.17  96.1  5.95     5    0.688   -0.543
##  9     9 0.211  12.5     0 0.524  5.63 100    6.08     5    1.36    -1.15 
## 10    10 0.17   12.5     0 0.524  6.00  85.9  6.59     5    0.265   -0.095
## # ... with 496 more rows
…
get_regression_summaries(high_crime_log_regression)

## # A tibble: 1 x 8
##   r_squared adj_r_squared   mse  rmse sigma statistic p_value    df
##       <dbl>         <dbl> <dbl> <dbl> <dbl>     <dbl>   <dbl> <dbl>
## 1     0.866         0.864 0.625 0.791 0.797      460.       0     8

reg_pts_log <- get_regression_points(high_crime_log_regression)
reg_pts_log

## # A tibble: 506 x 11
##       ID log_crim    zn  chas   nox    rm   age   dis   rad log_crim_hat
##    <int>    <dbl> <dbl> <int> <dbl> <dbl> <dbl> <dbl> <int>        <dbl>
##  1     1    -5.06  18       0 0.538  6.58  65.2  4.09     1        -2.24
##  2     2    -3.60   0       0 0.469  6.42  78.9  4.97     2        -2.16
##  3     3    -3.60   0       0 0.469  7.18  61.1  4.97     2        -2.40
##  4     4    -3.43   0       0 0.458  7.00  45.8  6.06     3        -2.45
##  5     5    -2.67   0       0 0.458  7.15  54.2  6.06     3        -2.40
##  6     6    -3.51   0       0 0.458  6.43  58.7  6.06     3        -2.28
##  7     7    -2.43  12.5     0 0.524  6.01  66.6  5.56     5        -1.65
##  8     8    -1.93  12.5     0 0.524  6.17  96.1  5.95     5        -1.45
##  9     9    -1.56  12.5     0 0.524  5.63 100    6.08     5        -1.35
## 10    10    -1.77  12.5     0 0.524  6.00  85.9  6.59     5        -1.53
## # ... with 496 more rows, and 1 more variable: residual <dbl>
Q8 Response

Continuing our explanation from 7 to a random Boston Citizen, we could say:

Sometimes values in our data dont fit correctly for the math that we need to used for them, so we transform all of the data with some other math to see whether or not that model is better. We used a logarithmic function on all of our data points and looked to see whether there is a relationship between per capita crime rates and all of the other pieces of data that we have. We can say that the relationship is not by chance if we see a p value of less than 0.05 from our calculation. In our data, we see 2 variables that have a p value greater than 0.05. Those variables are chas and dis. That means that chas and dis are likely showing a relationship, but that relationship is not significant because it is by chance. The other values, however, do likely have a relationship that is not by chance.

Additionally, our model has an R^2 value that explains the amount of weirdness in our data. I.E. the distance that our data doesnt match what we expected. Our R^2 value is 0.866, meaning that 86.6% of the deviation from what we expect is explained by our model. By statistics standards, thats a pretty good model.

Question 9 (10 points)

Compare the R^2 values of the two regressions from Q7 and Q8. Which regression seems to have a stronger relationship? Should we use crim or log_crim in future analysis? (You should also be able to support your explanation by looking at graphs of the residuals for each regression. Though you dont have to do that here.)

reg_pts

## # A tibble: 506 x 11
##       ID  crim    zn  chas   nox    rm   age   dis   rad crim_hat residual
##    <int> <dbl> <dbl> <int> <dbl> <dbl> <dbl> <dbl> <int>    <dbl>    <dbl>
##  1     1 0.006  18       0 0.538  6.58  65.2  4.09     1   -1.34     1.34 
##  2     2 0.027   0       0 0.469  6.42  78.9  4.97     2   -1.31     1.34 
##  3     3 0.027   0       0 0.469  7.18  61.1  4.97     2   -2.64     2.67 
##  4     4 0.032   0       0 0.458  7.00  45.8  6.06     3   -2.83     2.86 
##  5     5 0.069   0       0 0.458  7.15  54.2  6.06     3   -2.84     2.90 
##  6     6 0.03    0       0 0.458  6.43  58.7  6.06     3   -1.84     1.87 
##  7     7 0.088  12.5     0 0.524  6.01  66.6  5.56     5    0.522   -0.434
##  8     8 0.145  12.5     0 0.524  6.17  96.1  5.95     5    0.688   -0.543
##  9     9 0.211  12.5     0 0.524  5.63 100    6.08     5    1.36    -1.15 
## 10    10 0.17   12.5     0 0.524  6.00  85.9  6.59     5    0.265   -0.095
## # ... with 496 more rows

reg_pts_log

## # A tibble: 506 x 11
##       ID log_crim    zn  chas   nox    rm   age   dis   rad log_crim_hat
##    <int>    <dbl> <dbl> <int> <dbl> <dbl> <dbl> <dbl> <int>        <dbl>
##  1     1    -5.06  18       0 0.538  6.58  65.2  4.09     1        -2.24
##  2     2    -3.60   0       0 0.469  6.42  78.9  4.97     2        -2.16
##  3     3    -3.60   0       0 0.469  7.18  61.1  4.97     2        -2.40
##  4     4    -3.43   0       0 0.458  7.00  45.8  6.06     3        -2.45
##  5     5    -2.67   0       0 0.458  7.15  54.2  6.06     3        -2.40
##  6     6    -3.51   0       0 0.458  6.43  58.7  6.06     3        -2.28
##  7     7    -2.43  12.5     0 0.524  6.01  66.6  5.56     5        -1.65
##  8     8    -1.93  12.5     0 0.524  6.17  96.1  5.95     5        -1.45
##  9     9    -1.56  12.5     0 0.524  5.63 100    6.08     5        -1.35
## 10    10    -1.77  12.5     0 0.524  6.00  85.9  6.59     5        -1.53
## # ... with 496 more rows, and 1 more variable: residual <dbl>
…
